<?xml version="1.0" encoding="utf-8"?>
<!-- Generator: Adobe Illustrator 21.1.0, SVG Export Plug-In . SVG Version: 6.00 Build 0)  -->
<svg version="1.1" id="圖層_1" xmlns="http://www.w3.org/2000/svg" xmlns:xlink="http://www.w3.org/1999/xlink" x="0px" y="0px"
	 viewBox="0 0 132.5 80.4" style="enable-background:new 0 0 132.5 80.4;" xml:space="preserve">
<style type="text/css">
	.st0{fill:#14227F;}
	.st1{fill:#FFFFFF;}
</style>
<path class="st0" d="M127.5,80.4H5c-2.8,0-5-2.2-5-5V5c0-2.8,2.2-5,5-5h122.5c2.7,0,5,2.2,5,5v70.4
	C132.5,78.1,130.3,80.4,127.5,80.4z"/>
<g>
	<path class="st1" d="M78.6,34.2L66.3,50.7L54,34.2l-6.6,5.2c0,0,13,17.2,15.4,20.1c1,1.2,2.2,1.8,3.5,1.8c1.3,0,2.5-0.6,3.5-1.8
		c2.4-2.9,15.4-20.1,15.4-20.1L78.6,34.2z"/>
	<path class="st1" d="M66.3,21.5l26.2,39.9l6.1-6.7L69.7,11.9c-0.8-1.1-2.1-1.8-3.4-1.8c-1.4,0-2.6,0.7-3.4,1.8L34,54.7l6.1,6.7
		L66.3,21.5z"/>
	<path class="st1" d="M66.3,8.7c-21.8,0-39.4,14.1-39.4,31.5c0,17.4,17.6,31.5,39.4,31.5c21.8,0,39.4-14.1,39.4-31.5
		C105.7,22.8,88,8.7,66.3,8.7 M66.3,67.8c-19.1,0-34.7-12.4-34.7-27.6c0-15.2,15.6-27.6,34.7-27.6c19.1,0,34.7,12.4,34.7,27.6
		C100.9,55.4,85.4,67.8,66.3,67.8"/>
</g>
</svg>
